%YAML 1.1
%TAG !u! tag:unity3d.com,2011:
--- !u!1045 &1
EditorBuildSettings:
  m_ObjectHideFlags: 0
  serializedVersion: 2
  m_Scenes:
  - enabled: 1
    path: Assets/SocketIO/Scenes/SocketIOTest.unity
    guid: d0610c6cbb3e14cb6961f361c3ba23fe
  - enabled: 0
    path: Assets/1.Scenes/ReviewStone Demo.unity
    guid: 6c16361f0ff3b4f4dbbcd9fd584ec627
  - enabled: 0
    path: Assets/1.Scenes/ReviewStone Demo.unity
    guid: 6c16361f0ff3b4f4dbbcd9fd584ec627
  - enabled: 0
    path: Assets/1.Scenes/01.FisrtScene.unity
    guid: dd240a8911af890438a49cacafe78ec2
  - enabled: 0
    path: Assets/1.Scenes/03.SaveScene.unity
    guid: 962f5c2ea2587364c8bb9ea56e05e2ca
  - enabled: 0
    path: Assets/1.Scenes/02.SecondScene.unity
    guid: 3859e0ce8c9765a4ab7364881329652f
  m_configObjects: {}
